Application Programming Interfaces in R
…
In the code above I created a dataframe that describes the total number of calls I can make within a given deadline (called reset). In this case, it is 15 minutes. In order to prevent rate limiting within a large loop, it is common practice to employ Rs Sys.sleep function, which tells R to sleep for a certain number of seconds before proceeding to the next iteration of a loop. One example of how you could handle this within a loop is using the following type of if statement:

follower_limits<-rate_limits[rate_limits$query=="friends/following/ids",]
if(follower_limits$remaining==0){
  Sys.sleep(15*60)
}

rtweet has a number of other useful functions which I will mention in case they might be useful to readers. get_trends() will identify the trending topics on Twitter in a particular area:

get_trends("New York")

## # A tibble: 45 x 9
##    trend    url         promoted_content query   tweet_volume place  woeid
##  * <chr>    <chr>       <lgl>            <chr>          <int> <chr>  <int>
##  1 #Emmys   http://twi NA               %23Emm       910904 New  2.46e6
##  2 #Captai http://twi NA               %23Cap       371208 New  2.46e6
##  3 Mario K http://twi NA               %22Mar        39951 New  2.46e6
##  4 #Nation http://twi NA               %23Nat        10076 New  2.46e6
##  5 #Tuesda http://twi NA               %23Tue        62231 New  2.46e6
##  6 #AFBDay  http://twi NA               %23AFB           NA New  2.46e6
##  7 Yom Kip http://twi NA               %22Yom        10680 New  2.46e6
##  8 Harry S http://twi NA               %22Har        97955 New  2.46e6
##  9 Bob Seg http://twi NA               %22Bob           NA New  2.46e6
## 10 FedEx C http://twi NA               %22Fed           NA New  2.46e6
## # ... with 35 more rows, and 2 more variables: as_of <dttm>,
## #   created_at <dttm>
…
