Word Embeddings
…
The variable p_together here describes the probability the word2 occurs within the context window of word1.

A more instructive and useful type of output can be created by filtering this dataframe for an individual word- lets try Trump:

normalized_prob %>% 
    filter(word1 == "trump") %>%
    arrange(-p_together)

## # A tibble: 118 x 7
##    word1 word2                n          p      p1        p2 p_together
##    <chr> <chr>            <dbl>      <dbl>   <dbl>     <dbl>      <dbl>
##  1 trump trump             2350 0.000176   0.00149 0.00149         79.8
##  2 trump donald              58 0.00000434 0.00149 0.0000476       61.5
##  3 trump admins             55 0.00000412 0.00149 0.0000549       50.5
##  4 trump admin              169 0.0000127  0.00149 0.000198        43.1
##  5 trump administration's    64 0.00000479 0.00149 0.0000768       42.0
##  6 trump pres                65 0.00000487 0.00149 0.0000914       35.8
##  7 trump administration     537 0.0000402  0.00149 0.000775        34.9
##  8 trump administrations   170 0.0000127  0.00149 0.000285        30.0
##  9 trump promised            25 0.00000187 0.00149 0.0000512       24.6
## 10 trump sabotage            30 0.00000225 0.00149 0.0000622       24.3
## # ... with 108 more rows
…
    similarities %>%
        arrange(-similarity)    
}

Lets see what the top synonyms are for the term president

pres_synonym <- search_synonyms(word_vectors,word_vectors["president",])

## Warning: 'tidy.matrix' is deprecated.
## See help("Deprecated")

pres_synonym

## # A tibble: 6,019 x 2
##    token     similarity
##    <chr>          <dbl>
##  1 president     0.224 
##  2 vladimir      0.0969
##  3 putin         0.0959
##  4 trump's       0.0781
##  5 trumps       0.0761
##  6 believes      0.0751
##  7 should        0.0750
##  8 executive     0.0702
##  9 whether       0.0667
## 10 vice          0.0665
## # ... with 6,009 more rows
…
